…
a_mess %>%
  fill(Year) %>%
  pivot_longer(names_to = "Quarter", values_to = "Cost", cols = Q1:Q4) %>%
  separate(Dep_Unt, into = c("Dept", "Unit")) %>%
  replace_na(replace = list(Cost = 17))
## # A tibble: 32 x 5
##    Dept  Unit   Year Quarter  Cost
##    <chr> <chr> <int> <chr>   <dbl>
##  1 A     1      2006 Q1         15
##  2 A     1      2006 Q2         17
##  3 A     1      2006 Q3         19
##  4 A     1      2006 Q4         17
##  5 B     1      2006 Q1         12
##  6 B     1      2006 Q2         13
##  7 B     1      2006 Q3         27
##  8 B     1      2006 Q4         23
##  9 A     2      2006 Q1         22
## 10 A     2      2006 Q2         22
## # ... with 22 more rows
```
…
